Execution time: 105.001 seconds
Execution time: 58.5976 seconds
Execution time: 34.2594 seconds
Execution time: 17.7256 seconds
Execution time: 8.75067 seconds
Execution time: 4.46097 seconds
Execution time: 2.38895 seconds
Execution time: 1.73388 seconds
Execution time: 1.46963 seconds
